{
    "parent": "block/orientable",
    "texture":
    {
        "particle": "egsm:blocks/ruby_furnace_front_off",
        "up": "egsm:blocks/ruby_furnace_top",
        "down": "egsm:blocks/ruby_furnace_top",
        "north": "egsm:blocks/ruby_furnace_front_off",
        "east": "egsm:blocks/ruby_furnace_side",
        "south": "egsm:blocks/ruby_furnace_side",
        "west": "egsm:blocks/ruby_furnace_side"
    }
}